<svg width="200" height="200" version="1.1" xmlns="http://www.w3.org/2000/svg">
    <circle cx="100" cy="100" r="90" fill="#382b73" />

    <polyline points="70, 70 48, 70 48, 120" stroke="#d7d6d9" stroke-width="3" fill="none" />
    
    <polyline points="130, 70 153, 70 153, 120" stroke="#d7d6d9" stroke-width="3" fill="none" />

    <line x1="100" x2="100" y1="100" y2="130" stroke="#d7d6d9" stroke-width="3" />
    
    <rect x="92" y="40" width="16" height="16" stroke="#ec8db5" stroke-width="3" fill="none" rx="1" ry="1" />
    <rect x="92" y="62" width="16" height="16" stroke="#ec8db5" stroke-width="3" fill="none" rx="1" ry="1" />
    <rect x="92" y="84" width="16" height="16" stroke="#ec8db5" stroke-width="3" fill="none" rx="1" ry="1" />
    
    <rect x="70" y="40" width="16" height="16" stroke="#ec8db5" stroke-width="3" fill="none" rx="1" ry="1" />
    <rect x="70" y="62" width="16" height="16" stroke="#ec8db5" stroke-width="3" fill="none" rx="1" ry="1" />
    <rect x="70" y="84" width="16" height="16" stroke="#ec8db5" stroke-width="3" fill="none" rx="1" ry="1" />
    
    <rect x="114" y="40" width="16" height="16" stroke="#ec8db5" stroke-width="3" fill="none" rx="1" ry="1" />
    <rect x="114" y="62" width="16" height="16" stroke="#ec8db5" stroke-width="3" fill="none" rx="1" ry="1" />
    <rect x="114" y="84" width="16" height="16" stroke="#ec8db5" stroke-width="3" fill="none" rx="1" ry="1" />

    <rect x="40" y="120" width="16" height="16" stroke="#59bbd0" stroke-width="3" fill="none" rx="1" ry="1" />
    <rect x="145" y="120" width="16" height="16" stroke="#59bbd0" stroke-width="3" fill="none" rx="1" ry="1" />

    <polygon points="100, 130 120, 140 120, 165 100, 175 80, 165 80, 140 100, 130" stroke="#59bbd0" stroke-width="3" fill="none" />
    <line x1="120" x2="100" y1="140" y2="150" stroke="#59bbd0" stroke-width="3" />
    <line x1="80" x2="100" y1="140" y2="150" stroke="#59bbd0" stroke-width="3" />
    <line x1="120" x2="100" y1="140" y2="150" stroke="#59bbd0" stroke-width="3" />
    <line x1="100" x2="100" y1="175" y2="150" stroke="#59bbd0" stroke-width="3" />
</svg>